%YAML 1.1
%TAG !u! tag:unity3d.com,2011:
--- !u!162 &1
EditorUserSettings:
  m_ObjectHideFlags: 0
  serializedVersion: 4
  m_ConfigSettings:
    RecentlyUsedSceneGuid-0:
      value: 5a5757560101590a5d0c0e24427b5d44434e4c7a7b7a23677f2b4565b7b5353a
      flags: 0
    RecentlyUsedScenePath-0:
      value: 224247031146466b020215251f2d741e1f10103e3f67023520265217e7ed3b0be1e238eca92f31352d1b
      flags: 0
    RecentlyUsedScenePath-1:
      value: 22424703114646680e0b0227036c6c1313191d072d3068252320092a
      flags: 0
    RecentlyUsedScenePath-2:
      value: 22424703114646680e0b0227036c6c1313191d6a0a24297e38271427fb
      flags: 0
    RecentlyUsedScenePath-3:
      value: 224247031146466d0800082d026c6f1f1a0e1f25220328392a210920adc43135eda812ecea350c3f3c0cea721130082beb
      flags: 0
    RecentlyUsedScenePath-4:
      value: 224247031146466804031c2e1510540959283c2f2127690324240d3fe7d33f21ddc333e4e8742a323016f6
      flags: 0
    RecentlyUsedScenePath-5:
      value: 224247031146466d0800082d026c6c191b07142f1f233f7f120d183eedaf0731eff73aecd43126031d07e2334a2b0f36e613
      flags: 0
    RecentlyUsedScenePath-6:
      value: 224247031146467c38274c12220c1f3b1f0358676c0b272338281173c5e1393dadd435ece93f2c731d07e233373d0431f735411da4455a425f1bf30705e6
      flags: 0
    RecentlyUsedScenePath-7:
      value: 224247031146466d0800082d026c78253f57281803680d3939695073c1e1272de3eb76cee6373a730a01ea32012d4e1bf7070638f50e040e2e46eb5c5faf595d04cb11d103
      flags: 0
    RecentlyUsedScenePath-8:
      value: 224247031146466d0800082d026c6c191b07142f0d3829332c250423f1e57b07c6e23be6a8091e031d07e2334a2b0f36e613
      flags: 0
    RecentlyUsedScenePath-9:
      value: 22424703114646680e0b0227036c78111b12563f22213229
      flags: 0
    vcSharedLogLevel:
      value: 0d5e400f0650
      flags: 0
  m_VCAutomaticAdd: 1
  m_VCDebugCom: 0
  m_VCDebugCmd: 0
  m_VCDebugOut: 0
  m_SemanticMergeMode: 2
  m_DesiredImportWorkerCount: 5
  m_StandbyImportWorkerCount: 2
  m_IdleImportWorkerShutdownDelay: 60000
  m_VCShowFailedCheckout: 1
  m_VCOverwriteFailedCheckoutAssets: 1
  m_VCProjectOverlayIcons: 1
  m_VCHierarchyOverlayIcons: 1
  m_VCOtherOverlayIcons: 1
  m_VCAllowAsyncUpdate: 1
  m_ArtifactGarbageCollection: 1
