%YAML 1.1
%TAG !u! tag:unity3d.com,2011:
--- !u!1001 &5572941033862049185
PrefabInstance:
  m_ObjectHideFlags: 0
  serializedVersion: 2
  m_Modification:
    m_TransformParent: {fileID: 0}
    m_Modifications:
    - target: {fileID: 67710205, guid: bd9215cc27fce4d42ae1059af13f17f0, type: 3}
      propertyPath: m_ConnectedAnchor.y
      value: 1.3364032e-15
      objectReference: {fileID: 0}
    - target: {fileID: 67710205, guid: bd9215cc27fce4d42ae1059af13f17f0, type: 3}
      propertyPath: m_ConnectedAnchor.z
      value: -2.0679518e-25
      objectReference: {fileID: 0}
    - target: {fileID: 121230353, guid: bd9215cc27fce4d42ae1059af13f17f0, type: 3}
      propertyPath: m_ConnectedAnchor.x
      value: 0.37452215
      objectReference: {fileID: 0}
    - target: {fileID: 121230353, guid: bd9215cc27fce4d42ae1059af13f17f0, type: 3}
      propertyPath: m_ConnectedAnchor.y
      value: -0.00000005326001
      objectReference: {fileID: 0}
    - target: {fileID: 121230353, guid: bd9215cc27fce4d42ae1059af13f17f0, type: 3}
      propertyPath: m_ConnectedAnchor.z
      value: -0.0000000037252903
      objectReference: {fileID: 0}
    - target: {fileID: 226526004, guid: bd9215cc27fce4d42ae1059af13f17f0, type: 3}
      propertyPath: m_ConnectedAnchor.x
      value: 0.47118846
      objectReference: {fileID: 0}
    - target: {fileID: 226526004, guid: bd9215cc27fce4d42ae1059af13f17f0, type: 3}
      propertyPath: m_ConnectedAnchor.z
      value: -0.0000000037252903
      objectReference: {fileID: 0}
    - target: {fileID: 432105219, guid: bd9215cc27fce4d42ae1059af13f17f0, type: 3}
      propertyPath: m_ConnectedAnchor.y
      value: 0.000000040163286
      objectReference: {fileID: 0}
    - target: {fileID: 432105219, guid: bd9215cc27fce4d42ae1059af13f17f0, type: 3}
      propertyPath: m_ConnectedAnchor.z
      value: -0.0000000013044428
      objectReference: {fileID: 0}
    - target: {fileID: 594699722, guid: bd9215cc27fce4d42ae1059af13f17f0, type: 3}
      propertyPath: m_ConnectedAnchor.y
      value: 1.9327818e-15
      objectReference: {fileID: 0}
    - target: {fileID: 594699722, guid: bd9215cc27fce4d42ae1059af13f17f0, type: 3}
      propertyPath: m_ConnectedAnchor.z
      value: -1.1309111e-25
      objectReference: {fileID: 0}
    - target: {fileID: 698292740, guid: bd9215cc27fce4d42ae1059af13f17f0, type: 3}
      propertyPath: m_ConnectedAnchor.y
      value: -0.22158806
      objectReference: {fileID: 0}
    - target: {fileID: 698292740, guid: bd9215cc27fce4d42ae1059af13f17f0, type: 3}
      propertyPath: m_ConnectedAnchor.z
      value: -0.017863873
      objectReference: {fileID: 0}
    - target: {fileID: 1496273918, guid: bd9215cc27fce4d42ae1059af13f17f0, type: 3}
      propertyPath: m_ConnectedAnchor.x
      value: -0.47119048
      objectReference: {fileID: 0}
    - target: {fileID: 1496273918, guid: bd9215cc27fce4d42ae1059af13f17f0, type: 3}
      propertyPath: m_ConnectedAnchor.z
      value: -0.0000000037252903
      objectReference: {fileID: 0}
    - target: {fileID: 1556108906, guid: bd9215cc27fce4d42ae1059af13f17f0, type: 3}
      propertyPath: m_ConnectedAnchor.y
      value: -0.56523216
      objectReference: {fileID: 0}
    - target: {fileID: 1556108906, guid: bd9215cc27fce4d42ae1059af13f17f0, type: 3}
      propertyPath: m_ConnectedAnchor.z
      value: -0.0000000018626451
      objectReference: {fileID: 0}
    - target: {fileID: 1662100113, guid: bd9215cc27fce4d42ae1059af13f17f0, type: 3}
      propertyPath: m_ConnectedAnchor.y
      value: 0.22158815
      objectReference: {fileID: 0}
    - target: {fileID: 1662100113, guid: bd9215cc27fce4d42ae1059af13f17f0, type: 3}
      propertyPath: m_ConnectedAnchor.z
      value: 0.01786388
      objectReference: {fileID: 0}
    - target: {fileID: 1867933925, guid: bd9215cc27fce4d42ae1059af13f17f0, type: 3}
      propertyPath: m_ConnectedAnchor.y
      value: 0.56523216
      objectReference: {fileID: 0}
    - target: {fileID: 1867933925, guid: bd9215cc27fce4d42ae1059af13f17f0, type: 3}
      propertyPath: m_ConnectedAnchor.z
      value: 0.0000000018626451
      objectReference: {fileID: 0}
    - target: {fileID: 3098876648756489364, guid: bd9215cc27fce4d42ae1059af13f17f0,
        type: 3}
      propertyPath: m_IsActive
      value: 0
      objectReference: {fileID: 0}
    - target: {fileID: 3098876648756499778, guid: bd9215cc27fce4d42ae1059af13f17f0,
        type: 3}
      propertyPath: m_IsActive
      value: 0
      objectReference: {fileID: 0}
    - target: {fileID: 3098876648756505546, guid: bd9215cc27fce4d42ae1059af13f17f0,
        type: 3}
      propertyPath: m_IsActive
      value: 1
      objectReference: {fileID: 0}
    - target: {fileID: 3098876648756518870, guid: bd9215cc27fce4d42ae1059af13f17f0,
        type: 3}
      propertyPath: m_IsActive
      value: 0
      objectReference: {fileID: 0}
    - target: {fileID: 3098876648756522420, guid: bd9215cc27fce4d42ae1059af13f17f0,
        type: 3}
      propertyPath: m_IsActive
      value: 0
      objectReference: {fileID: 0}
    - target: {fileID: 3098876648756528402, guid: bd9215cc27fce4d42ae1059af13f17f0,
        type: 3}
      propertyPath: m_Name
      value: AI_Char_Surv_Male_04 1
      objectReference: {fileID: 0}
    - target: {fileID: 3098876648756806064, guid: bd9215cc27fce4d42ae1059af13f17f0,
        type: 3}
      propertyPath: m_RootOrder
      value: 0
      objectReference: {fileID: 0}
    - target: {fileID: 3098876648756806064, guid: bd9215cc27fce4d42ae1059af13f17f0,
        type: 3}
      propertyPath: m_LocalPosition.x
      value: 0
      objectReference: {fileID: 0}
    - target: {fileID: 3098876648756806064, guid: bd9215cc27fce4d42ae1059af13f17f0,
        type: 3}
      propertyPath: m_LocalPosition.y
      value: 0
      objectReference: {fileID: 0}
    - target: {fileID: 3098876648756806064, guid: bd9215cc27fce4d42ae1059af13f17f0,
        type: 3}
      propertyPath: m_LocalPosition.z
      value: 0
      objectReference: {fileID: 0}
    - target: {fileID: 3098876648756806064, guid: bd9215cc27fce4d42ae1059af13f17f0,
        type: 3}
      propertyPath: m_LocalRotation.w
      value: 1
      objectReference: {fileID: 0}
    - target: {fileID: 3098876648756806064, guid: bd9215cc27fce4d42ae1059af13f17f0,
        type: 3}
      propertyPath: m_LocalRotation.x
      value: 0
      objectReference: {fileID: 0}
    - target: {fileID: 3098876648756806064, guid: bd9215cc27fce4d42ae1059af13f17f0,
        type: 3}
      propertyPath: m_LocalRotation.y
      value: 0
      objectReference: {fileID: 0}
    - target: {fileID: 3098876648756806064, guid: bd9215cc27fce4d42ae1059af13f17f0,
        type: 3}
      propertyPath: m_LocalRotation.z
      value: 0
      objectReference: {fileID: 0}
    - target: {fileID: 3098876648756806064, guid: bd9215cc27fce4d42ae1059af13f17f0,
        type: 3}
      propertyPath: m_LocalEulerAnglesHint.x
      value: 0
      objectReference: {fileID: 0}
    - target: {fileID: 3098876648756806064, guid: bd9215cc27fce4d42ae1059af13f17f0,
        type: 3}
      propertyPath: m_LocalEulerAnglesHint.y
      value: 0
      objectReference: {fileID: 0}
    - target: {fileID: 3098876648756806064, guid: bd9215cc27fce4d42ae1059af13f17f0,
        type: 3}
      propertyPath: m_LocalEulerAnglesHint.z
      value: 0
      objectReference: {fileID: 0}
    m_RemovedComponents: []
  m_SourcePrefab: {fileID: 100100000, guid: bd9215cc27fce4d42ae1059af13f17f0, type: 3}
