%YAML 1.1
%TAG !u! tag:unity3d.com,2011:
--- !u!1001 &5572941033862049185
PrefabInstance:
  m_ObjectHideFlags: 0
  serializedVersion: 2
  m_Modification:
    m_TransformParent: {fileID: 0}
    m_Modifications:
    - target: {fileID: 808967447353085244, guid: bd9215cc27fce4d42ae1059af13f17f0,
        type: 3}
      propertyPath: m_ConnectedAnchor.y
      value: 0.5652313
      objectReference: {fileID: 0}
    - target: {fileID: 808967447353085244, guid: bd9215cc27fce4d42ae1059af13f17f0,
        type: 3}
      propertyPath: m_ConnectedAnchor.z
      value: -2.3595117e-17
      objectReference: {fileID: 0}
    - target: {fileID: 1306801885765901933, guid: bd9215cc27fce4d42ae1059af13f17f0,
        type: 3}
      propertyPath: m_ConnectedAnchor.x
      value: 0.37452215
      objectReference: {fileID: 0}
    - target: {fileID: 1306801885765901933, guid: bd9215cc27fce4d42ae1059af13f17f0,
        type: 3}
      propertyPath: m_ConnectedAnchor.y
      value: -0.0000009504147
      objectReference: {fileID: 0}
    - target: {fileID: 1306801885765901933, guid: bd9215cc27fce4d42ae1059af13f17f0,
        type: 3}
      propertyPath: m_ConnectedAnchor.z
      value: 0.00000021234155
      objectReference: {fileID: 0}
    - target: {fileID: 3098876648756499124, guid: bd9215cc27fce4d42ae1059af13f17f0,
        type: 3}
      propertyPath: m_IsActive
      value: 0
      objectReference: {fileID: 0}
    - target: {fileID: 3098876648756522420, guid: bd9215cc27fce4d42ae1059af13f17f0,
        type: 3}
      propertyPath: m_IsActive
      value: 1
      objectReference: {fileID: 0}
    - target: {fileID: 3098876648756528402, guid: bd9215cc27fce4d42ae1059af13f17f0,
        type: 3}
      propertyPath: m_Name
      value: AI_Char_Surv_Male_01
      objectReference: {fileID: 0}
    - target: {fileID: 3098876648756806064, guid: bd9215cc27fce4d42ae1059af13f17f0,
        type: 3}
      propertyPath: m_RootOrder
      value: 0
      objectReference: {fileID: 0}
    - target: {fileID: 3098876648756806064, guid: bd9215cc27fce4d42ae1059af13f17f0,
        type: 3}
      propertyPath: m_LocalPosition.x
      value: 0
      objectReference: {fileID: 0}
    - target: {fileID: 3098876648756806064, guid: bd9215cc27fce4d42ae1059af13f17f0,
        type: 3}
      propertyPath: m_LocalPosition.y
      value: 0
      objectReference: {fileID: 0}
    - target: {fileID: 3098876648756806064, guid: bd9215cc27fce4d42ae1059af13f17f0,
        type: 3}
      propertyPath: m_LocalPosition.z
      value: 0
      objectReference: {fileID: 0}
    - target: {fileID: 3098876648756806064, guid: bd9215cc27fce4d42ae1059af13f17f0,
        type: 3}
      propertyPath: m_LocalRotation.w
      value: 1
      objectReference: {fileID: 0}
    - target: {fileID: 3098876648756806064, guid: bd9215cc27fce4d42ae1059af13f17f0,
        type: 3}
      propertyPath: m_LocalRotation.x
      value: 0
      objectReference: {fileID: 0}
    - target: {fileID: 3098876648756806064, guid: bd9215cc27fce4d42ae1059af13f17f0,
        type: 3}
      propertyPath: m_LocalRotation.y
      value: 0
      objectReference: {fileID: 0}
    - target: {fileID: 3098876648756806064, guid: bd9215cc27fce4d42ae1059af13f17f0,
        type: 3}
      propertyPath: m_LocalRotation.z
      value: 0
      objectReference: {fileID: 0}
    - target: {fileID: 3098876648756806064, guid: bd9215cc27fce4d42ae1059af13f17f0,
        type: 3}
      propertyPath: m_LocalEulerAnglesHint.x
      value: 0
      objectReference: {fileID: 0}
    - target: {fileID: 3098876648756806064, guid: bd9215cc27fce4d42ae1059af13f17f0,
        type: 3}
      propertyPath: m_LocalEulerAnglesHint.y
      value: 0
      objectReference: {fileID: 0}
    - target: {fileID: 3098876648756806064, guid: bd9215cc27fce4d42ae1059af13f17f0,
        type: 3}
      propertyPath: m_LocalEulerAnglesHint.z
      value: 0
      objectReference: {fileID: 0}
    - target: {fileID: 3103627587100080058, guid: bd9215cc27fce4d42ae1059af13f17f0,
        type: 3}
      propertyPath: m_ConnectedAnchor.y
      value: -0.5652315
      objectReference: {fileID: 0}
    - target: {fileID: 3103627587100080058, guid: bd9215cc27fce4d42ae1059af13f17f0,
        type: 3}
      propertyPath: m_ConnectedAnchor.z
      value: 2.3469648e-17
      objectReference: {fileID: 0}
    - target: {fileID: 3700644377534937385, guid: bd9215cc27fce4d42ae1059af13f17f0,
        type: 3}
      propertyPath: m_ConnectedAnchor.x
      value: 0.47118917
      objectReference: {fileID: 0}
    - target: {fileID: 5114464593366602228, guid: bd9215cc27fce4d42ae1059af13f17f0,
        type: 3}
      propertyPath: m_ConnectedAnchor.z
      value: -0.01786375
      objectReference: {fileID: 0}
    - target: {fileID: 5315625524503446404, guid: bd9215cc27fce4d42ae1059af13f17f0,
        type: 3}
      propertyPath: m_ConnectedAnchor.z
      value: 0.01786375
      objectReference: {fileID: 0}
    - target: {fileID: 7662376817105235471, guid: bd9215cc27fce4d42ae1059af13f17f0,
        type: 3}
      propertyPath: m_ConnectedAnchor.y
      value: -0.00000013859244
      objectReference: {fileID: 0}
    - target: {fileID: 7662376817105235471, guid: bd9215cc27fce4d42ae1059af13f17f0,
        type: 3}
      propertyPath: m_ConnectedAnchor.z
      value: -0.000000071276645
      objectReference: {fileID: 0}
    m_RemovedComponents: []
  m_SourcePrefab: {fileID: 100100000, guid: bd9215cc27fce4d42ae1059af13f17f0, type: 3}
